<?xml version="1.0" encoding="UTF-8"?>
<svg width="24px" height="24px" viewBox="0 0 24 24" version="1.1" xmlns="http://www.w3.org/2000/svg" xmlns:xlink="http://www.w3.org/1999/xlink">
    <!-- Generator: Sketch 52.6 (67491) - http://www.bohemiancoding.com/sketch -->
    <title>Users / Geomertric-Close-Up-Multiple-Users-Actions / multiple-actions-setting</title>
    <desc>Created with Sketch.</desc>
    <g id="Users-/-Geomertric-Close-Up-Multiple-Users-Actions-/-multiple-actions-setting" stroke="none" stroke-width="1" fill="none" fill-rule="evenodd" stroke-linecap="round" stroke-linejoin="round">
        <g id="Group" stroke="#000000" stroke-width="1.5">
            <g id="Regular">
                <circle id="Oval" cx="17.25" cy="16.5" r="1.5"></circle>
                <path d="M18.524,10.7 L18.966,12.153 C19.1169176,12.6532721 19.629724,12.9509884 20.139,12.834 L21.612,12.492 C22.184929,12.362922 22.7751015,12.6222476 23.0675162,13.1315633 C23.3599308,13.6408789 23.2863309,14.2812979 22.886,14.711 L21.856,15.822 C21.4990446,16.2058363 21.4990446,16.8001637 21.856,17.184 L22.886,18.295 C23.2869636,18.7244075 23.3609034,19.3651424 23.068282,19.8745885 C22.7756606,20.3840345 22.184943,20.642996 21.612,20.513 L20.139,20.172 C19.6296449,20.0544877 19.1165018,20.3523994 18.966,20.853 L18.524,22.3 C18.3546994,22.8623783 17.8368092,23.2473195 17.2495,23.2473195 C16.6621908,23.2473195 16.1443006,22.8623783 15.975,22.3 L15.533,20.848 C15.3824982,20.3473994 14.8693551,20.0494877 14.36,20.167 L12.887,20.508 C12.314057,20.637996 11.7233394,20.3790345 11.430718,19.8695885 C11.1380966,19.3601424 11.2120364,18.7194075 11.613,18.29 L12.643,17.179 C12.9999554,16.7951637 12.9999554,16.2008363 12.643,15.817 L11.613,14.706 C11.2126691,14.2762979 11.1390692,13.6358789 11.4314838,13.1265633 C11.7238985,12.6172476 12.314071,12.357922 12.887,12.487 L14.36,12.829 C14.869276,12.9459884 15.3820824,12.6482721 15.533,12.148 L15.975,10.695 C16.1454007,10.1329508 16.664047,9.74902217 17.2513582,9.75017421 C17.8386694,9.75132625 18.3558056,10.1372866 18.524,10.7 Z" id="Shape"></path>
                <path d="M10.256,10.1 C9.22913652,9.37973548 8.0042762,8.99543818 6.75,9 C3.7083747,8.97615479 1.13012138,11.2321264 0.75,14.25" id="Shape"></path>
                <circle id="Oval" cx="6.75" cy="4.125" r="3.375"></circle>
                <circle id="Oval" cx="16.5" cy="3.375" r="2.625"></circle>
                <path d="M19.526,7.921 C18.6315962,7.10840963 17.4479585,6.68968708 16.2415407,6.75909278 C15.0351228,6.82849849 13.9073139,7.38019949 13.112,8.29" id="Shape"></path>
            </g>
        </g>
    </g>
</svg>