<?xml version="1.0" encoding="UTF-8"?>
<svg width="100px" height="100px" viewBox="0 0 100 100" version="1.1" xmlns="http://www.w3.org/2000/svg" xmlns:xlink="http://www.w3.org/1999/xlink">
    <!-- Generator: Sketch 52.2 (67145) - http://www.bohemiancoding.com/sketch -->
    <title>Computer</title>
    <desc>Created with Sketch.</desc>
    <g id="Page-1" stroke="none" stroke-width="1" fill="none" fill-rule="evenodd">
        <g id="Simple-Landing-Page" transform="translate(-1140.000000, -868.000000)" fill="#4A4A4A">
            <g id="Three-Assets" transform="translate(280.000000, 868.000000)">
                <g id="Modern" transform="translate(780.000000, 0.000000)">
                    <g id="Computer" transform="translate(80.000000, 0.000000)">
                        <path d="M34.5330078,32.8216797 C34.1300781,32.8216797 33.725,32.6980469 33.3763672,32.4410156 C32.5074219,31.8015625 32.321875,30.5792969 32.9613281,29.7103516 C36.4402344,24.9847656 42.0066406,22.1634766 47.8515625,22.1634766 C53.6964844,22.1634766 59.2628906,24.9847656 62.7417969,29.7103516 C63.38125,30.5792969 63.1957031,31.8015625 62.3267578,32.4410156 C61.4585938,33.0802734 60.2355469,32.8949219 59.5962891,32.0267578 C56.8503906,28.2958984 52.4597656,26.0697266 47.8515625,26.0697266 C43.2433594,26.0697266 38.8535156,28.2966797 36.1068359,32.0267578 C35.7238281,32.5462891 35.1326172,32.8216797 34.5330078,32.8216797 Z M56.0966797,38.4193359 C55.4970703,38.4193359 54.9048828,38.1439453 54.5226563,37.6236328 C52.9625,35.5048828 50.4683594,34.2400391 47.8515625,34.2400391 C45.2347656,34.2400391 42.7414063,35.5048828 41.18125,37.6236328 C40.5410156,38.4925781 39.31875,38.6779297 38.4498047,38.0386719 C37.5816406,37.3992188 37.3955078,36.1763672 38.0347656,35.3080078 C40.328125,32.1929688 43.9980469,30.3337891 47.8515625,30.3337891 C51.7050781,30.3337891 55.375,32.1929688 57.6683594,35.3080078 C58.3076172,36.1763672 58.1214844,37.3992188 57.2533203,38.0386719 C56.9046875,38.2949219 56.4986328,38.4185547 56.0966797,38.4193359 Z M47.8515625,72.0382813 C44.6212891,72.0382813 41.9921875,69.4099609 41.9921875,66.1789063 C41.9921875,62.9478516 44.6212891,60.3195313 47.8515625,60.3195313 C51.0826172,60.3195313 53.7109375,62.9478516 53.7109375,66.1789063 C53.7109375,69.4099609 51.0826172,72.0382813 47.8515625,72.0382813 Z M47.8515625,64.2257813 C46.775,64.2257813 45.8984375,65.1015625 45.8984375,66.1789063 C45.8984375,67.25625 46.775,68.1320313 47.8515625,68.1320313 C48.9289063,68.1320313 49.8046875,67.25625 49.8046875,66.1789063 C49.8046875,65.1015625 48.9289063,64.2257813 47.8515625,64.2257813 Z M66.6871094,27.3048828 C66.1193359,27.3048828 65.5570313,27.0583984 65.1710938,26.5845703 C60.9007813,21.3363281 54.5882813,18.3257813 47.8515625,18.3257813 C43.3921875,18.3257813 39.0853516,19.6425781 35.3958984,22.1351563 C34.5015625,22.7386719 33.2878906,22.5037109 32.684375,21.6095703 C32.0808594,20.7160156 32.3158203,19.5015625 33.2099609,18.8980469 C37.5472656,15.9683594 42.6101563,14.4195313 47.8515625,14.4195313 C55.7685547,14.4195313 63.1859375,17.9550781 68.2007813,24.11875 C68.8820313,24.9556641 68.7552734,26.1863281 67.9183594,26.8669922 C67.5560547,27.1613281 67.1203125,27.3048828 66.6871094,27.3048828 Z M29.0175781,27.3048828 C28.8910156,27.3048828 28.7621094,27.2925781 28.6369141,27.2673828 C28.5117188,27.2421875 28.3890625,27.2033203 28.2714844,27.1544922 C28.1525391,27.1056641 28.0388672,27.046875 27.9335938,26.9744141 C27.8259766,26.9042969 27.7267578,26.8226563 27.6367188,26.7326172 C27.5466797,26.6425781 27.4650391,26.5425781 27.3949219,26.4359375 C27.3238281,26.3298828 27.2636719,26.2167969 27.2148438,26.0994141 C27.1660156,25.9804688 27.1271484,25.8576172 27.1035156,25.7347656 C27.0783203,25.6072266 27.0644531,25.4783203 27.0644531,25.3517578 C27.0644531,24.8382813 27.2736328,24.3339844 27.6367188,23.9707031 C27.7267578,23.8808594 27.8259766,23.7992188 27.9335938,23.7289063 C28.0388672,23.6587891 28.1525391,23.5976563 28.2714844,23.5488281 C28.3890625,23.5 28.5117188,23.4634766 28.6369141,23.4375 C28.8886719,23.3871094 29.1464844,23.3871094 29.3984375,23.4375 C29.5234375,23.4634766 29.6462891,23.5 29.7652344,23.5488281 C29.8828125,23.5976563 29.9957031,23.6587891 30.1017578,23.7289063 C30.209375,23.7992188 30.3085938,23.8808594 30.3986328,23.9707031 C30.4886719,24.0607422 30.5703125,24.1599609 30.6427734,24.2675781 C30.7128906,24.3728516 30.7716797,24.4865234 30.8205078,24.6054688 C30.8693359,24.7230469 30.9082031,24.8458984 30.9318359,24.9710938 C30.9570313,25.0960938 30.9707031,25.2242188 30.9707031,25.3517578 C30.9707031,25.4783203 30.9570313,25.6072266 30.9318359,25.7347656 C30.9082031,25.8576172 30.8693359,25.9804688 30.8205078,26.0994141 C30.7716797,26.2167969 30.7105469,26.3298828 30.6404297,26.4359375 C30.5703125,26.5425781 30.4886719,26.6425781 30.3986328,26.7326172 C30.3085938,26.8226563 30.209375,26.9042969 30.1017578,26.9744141 C29.9957031,27.046875 29.8828125,27.1056641 29.7652344,27.1544922 C29.6462891,27.2033203 29.5234375,27.2421875 29.3984375,27.2673828 C29.2732422,27.2925781 29.1443359,27.3048828 29.0175781,27.3048828 Z" id="Fill-7"></path>
                        <path d="M95.7039063,33.8142578 L95.7039063,5.89296875 C95.7039063,2.64355469 93.0603516,0 89.8101563,0 L5.89296875,0 C2.64355469,0 0,2.64355469 0,5.89296875 L0,68.6324219 C0,72.9339844 3.49960937,76.4335938 7.80097656,76.4335938 L58.6722656,76.4335938 L58.6722656,92.8107422 C58.6722656,96.775 61.8972656,100 65.8615234,100 L92.8107422,100 C96.775,100 100,96.775 100,92.8107422 L100,40.3953125 C100,37.4595703 98.2314453,34.9296875 95.7039063,33.8142578 Z M5.89296875,3.90625 L89.8101563,3.90625 C90.9058594,3.90625 91.7976563,4.79726563 91.7976563,5.89296875 L91.7976563,33.20625 L87.8914063,33.20625 L87.8914063,9.765625 C87.8914063,8.68691406 87.0162109,7.8125 85.9382813,7.8125 L9.765625,7.8125 C8.68691406,7.8125 7.8125,8.68691406 7.8125,9.765625 L7.8125,55.990625 L3.90625,55.990625 L3.90625,5.89296875 C3.90625,4.79726563 4.79726563,3.90625 5.89296875,3.90625 Z M7.80097656,72.5273438 C5.65332031,72.5273438 3.90625,70.7802734 3.90625,68.6324219 L3.90625,59.896875 L14.1806641,59.896875 C15.2595703,59.896875 16.1337891,59.0216797 16.1337891,57.94375 C16.1337891,56.8648437 15.2595703,55.990625 14.1806641,55.990625 L11.71875,55.990625 L11.71875,11.71875 L83.9851563,11.71875 L83.9851563,33.20625 L65.8615234,33.20625 C61.8972656,33.20625 58.6722656,36.4310547 58.6722656,40.3953125 L58.6722656,55.990625 L24.6613281,55.990625 C23.5824219,55.990625 22.7082031,56.8648437 22.7082031,57.94375 C22.7082031,59.0224609 23.5824219,59.896875 24.6613281,59.896875 L58.6722656,59.896875 L58.6722656,72.5273438 L7.80097656,72.5273438 Z M96.09375,92.8107422 C96.09375,94.6212891 94.6212891,96.09375 92.8107422,96.09375 L65.8615234,96.09375 C64.0509766,96.09375 62.5785156,94.6212891 62.5785156,92.8107422 L62.5785156,47.6585938 L81.1591797,47.6585938 C82.2373047,47.6585938 83.1123047,46.7841797 83.1123047,45.7054688 C83.1123047,44.6265625 82.2373047,43.7523438 81.1591797,43.7523438 L62.5785156,43.7523438 L62.5785156,40.3945312 C62.5785156,38.5849609 64.0509766,37.1125 65.8615234,37.1125 L92.8107422,37.1125 C94.6212891,37.1125 96.09375,38.5849609 96.09375,40.3945312 L96.09375,85.5476563 L71.9162109,85.5476563 C70.8375,85.5476563 69.9630859,86.421875 69.9630859,87.5007813 C69.9630859,88.5787109 70.8375,89.4539063 71.9162109,89.4539063 L96.09375,89.4539063 L96.09375,92.8107422 Z" id="Fill-8"></path>
                        <path d="M88.1255859,80.7869141 L70.5474609,80.7869141 C69.46875,80.7869141 68.5943359,79.9117187 68.5943359,78.8337891 L68.5943359,54.3732422 C68.5943359,53.2943359 69.46875,52.4201172 70.5474609,52.4201172 L88.1255859,52.4201172 C89.2044922,52.4201172 90.0787109,53.2943359 90.0787109,54.3732422 L90.0787109,78.8337891 C90.0787109,79.9117187 89.2044922,80.7869141 88.1255859,80.7869141 Z M72.5005859,76.8806641 L86.1724609,76.8806641 L86.1724609,56.3263672 L72.5005859,56.3263672 L72.5005859,76.8806641 Z" id="Fill-10"></path>
                    </g>
                </g>
            </g>
        </g>
    </g>
</svg>